%YAML 1.1
%TAG !u! tag:unity3d.com,2011:
--- !u!1 &100000
GameObject:
  m_ObjectHideFlags: 0
  m_PrefabParentObject: {fileID: 0}
  m_PrefabInternal: {fileID: 100100000}
  serializedVersion: 4
  m_Component:
  - 4: {fileID: 400000}
  - 114: {fileID: 11400000}
  - 33: {fileID: 3300000}
  - 23: {fileID: 2300000}
  m_Layer: 0
  m_Name: Water 1
  m_TagString: Untagged
  m_Icon: {fileID: 0}
  m_NavMeshLayer: 0
  m_StaticEditorFlags: 0
  m_IsActive: 1
--- !u!4 &400000
Transform:
  m_ObjectHideFlags: 1
  m_PrefabParentObject: {fileID: 0}
  m_PrefabInternal: {fileID: 100100000}
  m_GameObject: {fileID: 100000}
  m_LocalRotation: {x: 0, y: 0, z: 0, w: 1}
  m_LocalPosition: {x: 0, y: 0, z: 0}
  m_LocalScale: {x: 1, y: 1, z: 1}
  m_Children: []
  m_Father: {fileID: 0}
  m_RootOrder: 0
--- !u!23 &2300000
Renderer:
  m_ObjectHideFlags: 1
  m_PrefabParentObject: {fileID: 0}
  m_PrefabInternal: {fileID: 100100000}
  m_GameObject: {fileID: 100000}
  m_Enabled: 1
  m_CastShadows: 1
  m_ReceiveShadows: 1
  m_LightmapIndex: 255
  m_LightmapTilingOffset: {x: 1, y: 1, z: 0, w: 0}
  m_Materials:
  - {fileID: 2100000, guid: b48181f82ad217f4787f34a93a12ab09, type: 2}
  m_SubsetIndices: 
  m_StaticBatchRoot: {fileID: 0}
  m_UseLightProbes: 0
  m_LightProbeAnchor: {fileID: 0}
  m_ScaleInLightmap: 1
  m_SortingLayerID: 0
  m_SortingOrder: 0
--- !u!33 &3300000
MeshFilter:
  m_ObjectHideFlags: 1
  m_PrefabParentObject: {fileID: 0}
  m_PrefabInternal: {fileID: 100100000}
  m_GameObject: {fileID: 100000}
  m_Mesh: {fileID: 0}
--- !u!114 &11400000
MonoBehaviour:
  m_ObjectHideFlags: 1
  m_PrefabParentObject: {fileID: 0}
  m_PrefabInternal: {fileID: 100100000}
  m_GameObject: {fileID: 100000}
  m_Enabled: 1
  m_EditorHideFlags: 0
  m_Script: {fileID: 11500000, guid: a0e2144e62620cb429dec2eb763d9528, type: 3}
  m_Name: 
  m_EditorClassIdentifier: 
  VertexSpacing: .300000012
  StartX: -10
  YSurface: 0
  YBottom: -3
  VertexCount: 200
  Tension: .00999999978
  Spread: .25
  Damping: .0250000004
  CollisionVelocity: .100000001
  MaxIncrease: 2
  MaxDecrease: -2
  SpringPrefab: {fileID: 400000, guid: 9462dc4df8ede3d418eff3364ce8664d, type: 2}
  WaveSimulatorPrefab: {fileID: 400000, guid: 3260ac5b7a0beab4c8b19885e093395a, type: 2}
  WaveSimHeight: 5
  WaveSimSpeed: 5
  WaveHeight: .0199999996
  WaveTimeStep: .00999999978
  Height: 0
  SmoothTime: 0
  ChangedHeight: 0
  SurfaceVertices: 0
  vertices: []
  mf: {fileID: 0}
  mesh: {fileID: 0}
  triNumber: 0
  triangle: 
  SpringList: []
  lDeltas: []
  rDeltas: []
  Delaying: 0
  DelayingObject: {fileID: 0}
  DelayingObjectOldPos: {x: 0, y: 0, z: 0}
  WaveSimulator: {fileID: 0}
  te: 0
  Waving: 0
--- !u!1001 &100100000
Prefab:
  m_ObjectHideFlags: 1
  serializedVersion: 2
  m_Modification:
    m_TransformParent: {fileID: 0}
    m_Modifications: []
    m_RemovedComponents: []
  m_ParentPrefab: {fileID: 0}
  m_RootGameObject: {fileID: 100000}
  m_IsPrefabParent: 1
  m_IsExploded: 1
